<?xml version="1.0" encoding="UTF-8" standalone="no"?>
<!-- Created with Inkscape (http://www.inkscape.org/) -->

<svg
   width="16.639582mm"
   height="26.363174mm"
   viewBox="0 0 16.639582 26.363175"
   version="1.1"
   id="svg1"
   sodipodi:docname="flash-parabola.svg"
   inkscape:version="1.3 (0e150ed6c4, 2023-07-21)"
   xmlns:inkscape="http://www.inkscape.org/namespaces/inkscape"
   xmlns:sodipodi="http://sodipodi.sourceforge.net/DTD/sodipodi-0.dtd"
   xmlns:xlink="http://www.w3.org/1999/xlink"
   xmlns="http://www.w3.org/2000/svg"
   xmlns:svg="http://www.w3.org/2000/svg">
  <sodipodi:namedview
     id="namedview1"
     pagecolor="#ffffff"
     bordercolor="#000000"
     borderopacity="0.25"
     inkscape:showpageshadow="2"
     inkscape:pageopacity="0.0"
     inkscape:pagecheckerboard="0"
     inkscape:deskcolor="#d1d1d1"
     inkscape:document-units="mm"
     inkscape:zoom="3.6379437"
     inkscape:cx="40.544883"
     inkscape:cy="20.753483"
     inkscape:window-width="1280"
     inkscape:window-height="1001"
     inkscape:window-x="-8"
     inkscape:window-y="-8"
     inkscape:window-maximized="1"
     inkscape:current-layer="layer1" />
  <defs
     id="defs1">
    <linearGradient
       inkscape:collect="always"
       xlink:href="#linearGradient20"
       id="linearGradient15"
       gradientUnits="userSpaceOnUse"
       gradientTransform="translate(0,1.2791701)"
       x1="88.749672"
       y1="217.98164"
       x2="101.20577"
       y2="217.98164" />
    <linearGradient
       id="linearGradient20"
       inkscape:collect="always">
      <stop
         style="stop-color:#373737;stop-opacity:1;"
         offset="0"
         id="stop18" />
      <stop
         style="stop-color:#878787;stop-opacity:1;"
         offset="0.25449517"
         id="stop19" />
      <stop
         style="stop-color:#878787;stop-opacity:1;"
         offset="0.50899035"
         id="stop14" />
      <stop
         style="stop-color:#878787;stop-opacity:1;"
         offset="0.75449514"
         id="stop1" />
      <stop
         style="stop-color:#383838;stop-opacity:1;"
         offset="1"
         id="stop20" />
    </linearGradient>
    <radialGradient
       inkscape:collect="always"
       xlink:href="#linearGradient10"
       id="radialGradient9-5"
       gradientUnits="userSpaceOnUse"
       gradientTransform="matrix(0.60133144,0,0,0.67067472,31.843323,55.675934)"
       cx="105.00099"
       cy="237.64157"
       fx="105.00099"
       fy="237.64157"
       r="9.8529644" />
    <linearGradient
       id="linearGradient10"
       inkscape:collect="always">
      <stop
         style="stop-color:#a2a2a2;stop-opacity:1;"
         offset="0"
         id="stop9" />
      <stop
         style="stop-color:#595959;stop-opacity:1;"
         offset="1"
         id="stop10" />
    </linearGradient>
    <radialGradient
       inkscape:collect="always"
       xlink:href="#linearGradient3"
       id="radialGradient1-9"
       cx="95.350113"
       cy="213.40668"
       fx="95.350113"
       fy="213.40668"
       r="9.8768024"
       gradientTransform="matrix(1.7813348,0.02347449,-0.02333139,1.7704747,-59.639534,-150.04194)"
       gradientUnits="userSpaceOnUse" />
    <linearGradient
       id="linearGradient3"
       inkscape:collect="always">
      <stop
         style="stop-color:#626262;stop-opacity:1;"
         offset="0"
         id="stop3" />
      <stop
         style="stop-color:#4b4b4b;stop-opacity:1;"
         offset="0.14496833"
         id="stop8" />
      <stop
         style="stop-color:#222222;stop-opacity:1;"
         offset="0.46166795"
         id="stop5" />
    </linearGradient>
    <radialGradient
       inkscape:collect="always"
       xlink:href="#linearGradient5"
       id="radialGradient7-6"
       cx="105.00099"
       cy="237.64157"
       fx="105.00099"
       fy="237.64157"
       r="9.8529644"
       gradientTransform="matrix(0.8423567,0,0,0.77850767,16.552547,41.726436)"
       gradientUnits="userSpaceOnUse" />
    <linearGradient
       id="linearGradient5"
       inkscape:collect="always">
      <stop
         style="stop-color:#d0d0d0;stop-opacity:1;"
         offset="0"
         id="stop6" />
      <stop
         style="stop-color:#7d7d7d;stop-opacity:1;"
         offset="1"
         id="stop7" />
    </linearGradient>
  </defs>
  <g
     inkscape:label="Capa 1"
     inkscape:groupmode="layer"
     id="layer1"
     transform="translate(-111.62004,-31.784109)">
    <g
       id="g17-7"
       transform="translate(24.81663,-169.40241)"
       inkscape:label="Foco">
      <rect
         style="fill:url(#linearGradient15);stroke:#333333;stroke-width:0.229136"
         id="rect2-9"
         width="12.456094"
         height="16.348623"
         x="88.749672"
         y="211.0865"
         ry="0.72985351" />
      <ellipse
         style="fill:url(#radialGradient9-5);stroke-width:0.174781"
         id="ellipse9-6"
         cx="94.983719"
         cy="211.17194"
         rx="5.9248967"
         ry="0.60557818" />
      <g
         id="g9-0"
         transform="translate(-9.8768004,-20.334261)">
        <path
           id="rect3-4"
           style="fill:url(#radialGradient1-9);stroke-width:0.222873"
           d="m 96.680208,222.27717 16.639582,0.0199 c 0,0 -0.7749,6.69536 -3.1961,8.52514 -1.33821,1.01133 -2.02263,0.9465 -5.01512,0.9465 -2.85276,0 -4.0273,0.17144 -5.477353,-0.9465 -2.386503,-1.83992 -2.951009,-8.54504 -2.951009,-8.54504 z"
           sodipodi:nodetypes="ccsssc" />
        <ellipse
           style="fill:url(#radialGradient7-6);stroke-width:0.222873"
           id="path5-4"
           cx="105.00084"
           cy="222.22372"
           rx="8.2997103"
           ry="0.70294476" />
      </g>
      <g
         id="g18"
         transform="matrix(1.0244189,0,0,1,-172.7484,-6.6423872)"
         style="stroke:#999999;stroke-width:0.494004;stroke-dasharray:none">
        <path
           style="fill:none;stroke:#999999;stroke-width:0.494004;stroke-dasharray:none;stroke-opacity:0.544681"
           d="m 256.59567,219.12816 v 14.31266"
           id="path13"
           sodipodi:nodetypes="cc" />
        <path
           style="fill:none;stroke:#999999;stroke-width:0.494004;stroke-dasharray:none;stroke-opacity:0.544681"
           d="m 258.48797,219.26578 v 14.17504"
           id="path14"
           sodipodi:nodetypes="cc" />
        <path
           style="fill:none;stroke:#999999;stroke-width:0.494004;stroke-dasharray:none;stroke-opacity:0.544681"
           d="m 260.38026,219.30019 v 14.14063"
           id="path15"
           sodipodi:nodetypes="cc" />
        <path
           style="fill:none;stroke:#999999;stroke-width:0.494004;stroke-dasharray:none;stroke-opacity:0.544681"
           d="m 262.27256,219.30019 v 14.14063"
           id="path16"
           sodipodi:nodetypes="cc" />
        <path
           style="fill:none;stroke:#999999;stroke-width:0.494004;stroke-dasharray:none;stroke-opacity:0.544681"
           d="m 264.16485,219.26578 v 14.17504"
           id="path17"
           sodipodi:nodetypes="cc" />
        <path
           style="fill:none;stroke:#999999;stroke-width:0.494004;stroke-dasharray:none;stroke-opacity:0.544681"
           d="m 266.05715,219.12816 v 14.31266"
           id="path18"
           sodipodi:nodetypes="cc" />
      </g>
      <g
         id="g12"
         transform="translate(-166.34869,-6.6423872)"
         style="stroke-width:0.5;stroke-dasharray:none">
        <path
           style="fill:none;stroke:#333333;stroke-width:0.5;stroke-dasharray:none;stroke-opacity:0.544681"
           d="m 256.59567,219.12816 v 14.31266"
           id="path2"
           sodipodi:nodetypes="cc" />
        <path
           style="fill:none;stroke:#333333;stroke-width:0.5;stroke-dasharray:none;stroke-opacity:0.544681"
           d="m 258.48797,219.26578 v 14.17504"
           id="path3"
           sodipodi:nodetypes="cc" />
        <path
           style="fill:none;stroke:#333333;stroke-width:0.5;stroke-dasharray:none;stroke-opacity:0.544681"
           d="m 260.38026,219.30019 v 14.14063"
           id="path4"
           sodipodi:nodetypes="cc" />
        <path
           style="fill:none;stroke:#333333;stroke-width:0.5;stroke-dasharray:none;stroke-opacity:0.544681"
           d="m 262.27256,219.30019 v 14.14063"
           id="path6"
           sodipodi:nodetypes="cc" />
        <path
           style="fill:none;stroke:#333333;stroke-width:0.5;stroke-dasharray:none;stroke-opacity:0.544681"
           d="m 264.16485,219.26578 v 14.17504"
           id="path11"
           sodipodi:nodetypes="cc" />
        <path
           style="fill:none;stroke:#333333;stroke-width:0.5;stroke-dasharray:none;stroke-opacity:0.544681"
           d="m 266.05715,219.12816 v 14.31266"
           id="path12"
           sodipodi:nodetypes="cc" />
      </g>
    </g>
  </g>
</svg>
