<?xml version="1.0" encoding="UTF-8" standalone="no"?>
<!-- Created with Inkscape (http://www.inkscape.org/) -->

<svg
   width="55.17807mm"
   height="72.508301mm"
   viewBox="0 0 55.17807 72.508301"
   version="1.1"
   id="svg1"
   xmlns:xlink="http://www.w3.org/1999/xlink"
   xmlns="http://www.w3.org/2000/svg"
   xmlns:svg="http://www.w3.org/2000/svg">
  <defs
     id="defs1">
    <linearGradient
       id="linearGradient10">
      <stop
         style="stop-color:#e2e2e2;stop-opacity:1;"
         offset="0"
         id="stop10" />
      <stop
         style="stop-color:#ffffff;stop-opacity:1;"
         offset="0.44193831"
         id="stop12" />
      <stop
         style="stop-color:#f3f3f3;stop-opacity:1;"
         offset="0.51216382"
         id="stop13" />
      <stop
         style="stop-color:#e7e7e7;stop-opacity:1;"
         offset="1"
         id="stop11" />
    </linearGradient>
    <linearGradient
       id="linearGradient8">
      <stop
         style="stop-color:#f2f2f2;stop-opacity:1;"
         offset="0"
         id="stop8" />
      <stop
         style="stop-color:#d9d9d9;stop-opacity:1;"
         offset="1"
         id="stop9" />
    </linearGradient>
    <linearGradient
       xlink:href="#linearGradient8"
       id="linearGradient9"
       x1="70.820938"
       y1="124.28809"
       x2="70.703735"
       y2="144.38104"
       gradientUnits="userSpaceOnUse" />
    <linearGradient
       xlink:href="#linearGradient10"
       id="linearGradient11"
       x1="45.45425"
       y1="111.29117"
       x2="100.63232"
       y2="111.29117"
       gradientUnits="userSpaceOnUse" />
  </defs>
  <g
     id="layer1"
     transform="translate(-45.454249,-72.712601)">
    <path
       style="fill:url(#linearGradient11);stroke:#999999;stroke-width:0.5;stroke-linecap:round;stroke-dasharray:none"
       d="m 47.054108,84.768998 c 0,0 -0.861931,16.434072 -1.093035,25.201552 -0.231104,8.76748 -0.256486,27.39673 -0.256486,27.39673 l 54.636943,0.45044 c 0,0 0.17826,-19.26135 -0.2124,-27.87973 -0.390663,-8.61838 -1.979472,-23.800656 -1.979472,-23.800656 z"
       id="path7" />
    <rect
       style="fill:#f2f2f2;stroke:#999999;stroke-width:0.5;stroke-linecap:round;stroke-dasharray:none"
       id="rect1"
       width="51.40757"
       height="51.40757"
       x="46.803051"
       y="72.962601"
       ry="14.520453" />
    <path
       id="rect7"
       style="fill:url(#linearGradient9);stroke:#999999;stroke-width:0.5;stroke-linecap:round;stroke-dasharray:none"
       d="m 61.314436,124.52913 h 22.383997 c 8.050567,0 12.397317,3.89323 14.531708,8.35771 l 1.781509,3.72636 c 2.13439,4.46448 -6.481138,8.3577 -14.531705,8.3577 H 60.356582 c -8.050566,0 -15.709084,-3.77731 -14.531707,-8.3577 l 0.957854,-3.72636 c 1.177379,-4.58039 6.481141,-8.35771 14.531707,-8.35771 z" />
    <path
       style="fill:#cccccc;stroke:#999999;stroke-width:0.5;stroke-linecap:round;stroke-dasharray:none"
       d="m 72.171834,127.24573 v 15.16193"
       id="path8" />
  </g>
</svg>
